0 0 0 0 0 0 0 0 0 0 0 0 0 0 0 0 0 0 0 0
0 0 0 0 0 0 0 0 0 0 0 0 0 0 0 0 0 0 0 0
0 0 0 0 0 0 0 0 0 0 0 0 0 0 0 0 0 0 0 0
0 0 0 0 0 0 0 0 0 0 0 0 0 0 0 0 0 0 0 0
0 0 0 0 0 0 1 4 5 1 1 0 0 0 0 0 0 0 0 0
0 0 0 0 0 1 1 0 0 0 1 1 0 0 0 0 0 0 0 0
0 0 0 0 1 1 0 0 7 0 0 1 1 0 0 0 0 0 0 0
0 0 0 0 1 0 0 2 2 2 0 0 1 0 0 0 0 0 0 0
0 0 0 0 1 7 2 2 0 2 2 6 1 0 0 0 0 0 0 0
0 0 0 0 1 4 2 7 0 6 2 5 1 0 0 0 0 0 0 0
0 0 0 0 1 5 3 3 0 3 3 4 1 0 0 0 0 0 0 0
0 0 0 0 1 1 0 3 3 3 0 1 1 0 0 0 0 0 0 0
0 0 0 0 0 1 1 0 6 0 1 1 0 0 0 0 0 0 0 0
0 0 0 0 0 0 1 1 1 1 1 0 0 0 0 0 0 0 0 0
0 0 0 0 0 0 0 0 0 0 0 0 0 0 0 0 0 0 0 0
0 0 0 0 0 0 0 0 0 0 0 0 0 0 0 0 0 0 0 0
0 0 0 0 0 0 0 0 0 0 0 0 0 0 0 0 0 0 0 0
0 0 0 0 0 0 0 0 0 0 0 0 0 0 0 0 0 0 0 0
0 0 0 0 0 0 0 0 0 0 0 0 0 0 0 0 0 0 0 0
0 0 0 0 0 0 0 0 0 0 0 0 0 0 0 0 0 0 0 0
